{
 "blue-midnight": "#1c172e",
 "blue-dark": "#182638",
 "rose-pink": "#ff5a7b",
 "mid-pink": "#541522",
 "dark-pink": "#4a0c1d",
 "white": "#fff",
 "off-white": "#f5f9fa",
 "blue-black": "#171621",
 "blue-oxford": "#14213D",
 "blue-light": "#AFCBFF",
 "black": "#000000",
 "almost-black": "#212121",
 "orange": "#fa8823",
 "orange-web": "#FCA311",
 "pink-orange": "#ff5a7b",
 "light-green": "#9CFC97",
 "dark-red": "#901C14",
 "proton": "#8159FF",
 "gitlab": "#F99929",
 "github": "#0E50D1",
 "mastodon": "#4F42F9",
 "codepen": "#FED832",
 "bluesky": "#0E6CFF",
 "behance": "#0338FF",
 "linkedin": "#0D4FB4",
 "nicemoves": "#D73544",
 "parchment": "#F5E9CC"
}